Player Data for the 2018 FIFA World Cup
…
Are the missing score or so 24 year-olds a sign of something meaningful or random noise?

Team Quality

We dont have good measures of player (or team) quality in this data. But we do know if an individual plays for a team in one of the countries which host the five highest quality leagues: England (ENG), Spain (ESP), Germany (GER), Italy (58) and France (49). (It is no coincidence that these leagues account for the largest share of the players.)

x %>% 
  group_by(league) %>% 
  tally() %>% 
  arrange(desc(n))

## # A tibble: 55 x 2
##    league     n
##    <chr>  <int>
##  1 ENG      124
##  2 ESP       81
##  3 GER       67
##  4 ITA       58
##  5 FRA       49
##  6 RUS       36
##  7 KSA       30
##  8 MEX       22
##  9 TUR       22
## 10 POR       19
## # ... with 45 more rows
…
